…
`dplyr` has a group by function in it that does just this. A massive amount of data analysis involves grouping like things together at some point. So it's a good place to start.

So to do this, we'll take our dataset and we'll introduce a new operator: %>%. The best way to read that operator, in my opinion, is to interpret that as "and then do this." Here's the code:


```r
mountainlions %>%
  group_by(COUNTY) %>%
  summarise(
    total = n()
  )
```

```
## # A tibble: 42 x 2
##    COUNTY    total
##    <chr>     <int>
##  1 Banner        6
##  2 Blaine        3
##  3 Box Butte     4
##  4 Brown        15
##  5 Buffalo       3
##  6 Cedar         1
##  7 Cherry       30
##  8 Custer        8
##  9 Dakota        3
## 10 Dawes       111
## # … with 32 more rows
```
So let's walk through that. We start with our dataset -- `mountainlions` -- and then we tell it to group the data by a given field in the data. In this case, we wanted to group together all the counties, signified by the field name COUNTY, which you could get from looking at `head(mountainlions)`. After we group the data, we need to count them up. In dplyr, we use `summarize` [which can do more than just count things](http://dplyr.tidyverse.org/reference/summarise.html). Inside the parentheses in summarize, we set up the summaries we want. In this case, we just want a count of the counties: `count = n(),` says create a new field, called `total` and set it equal to `n()`, which might look weird, but it's common in stats. The number of things in a dataset? Statisticians call in n. There are n number of incidents in this dataset. So `n()` is a function that counts the number of things there are. 

And when we run that, we get a list of counties with a count next to them. But it's not in any order. So we'll add another And Then Do This %>% and use `arrange`. Arrange does what you think it does -- it arranges data in order. By default, it's in ascending order -- smallest to largest. But if we want to know the county with the most mountain lion sightings, we need to sort it in descending order. That looks like this:


```r
mountainlions %>%
  group_by(COUNTY) %>%
  summarise(
    count = n()
  ) %>% arrange(desc(count))
```

```
## # A tibble: 42 x 2
##    COUNTY       count
##    <chr>        <int>
##  1 Dawes          111
##  2 Sioux           52
##  3 Sheridan        35
##  4 Cherry          30
##  5 Scotts Bluff    26
##  6 Keya Paha       20
##  7 Brown           15
##  8 Rock            11
##  9 Lincoln         10
## 10 Custer           8
## # … with 32 more rows
```

We can, if we want, group by more than one thing. So how are these sightings being confirmed? To do that, we can group by County and "Cofirm Type", which is how the state misspelled Confirm. But note something in this example below:


```r
mountainlions %>%
  group_by(COUNTY, `Cofirm Type`) %>%
  summarise(
    count = n()
  ) %>% arrange(desc(count))
```

```
## # A tibble: 93 x 3
## # Groups:   COUNTY [42]
##    COUNTY       `Cofirm Type`      count
##    <chr>        <chr>              <int>
##  1 Dawes        Trail Camera Photo    41
##  2 Sioux        Trail Camera Photo    40
##  3 Dawes        Track                 19
##  4 Keya Paha    Trail Camera Photo    18
##  5 Cherry       Trail Camera Photo    17
##  6 Dawes        Mortality             17
##  7 Sheridan     Trail Camera Photo    16
##  8 Dawes        Photo                 13
##  9 Dawes        DNA                   11
## 10 Scotts Bluff Trail Camera Photo    11
## # … with 83 more rows
```
…
Why? 

Let's let sort help us. 

```r
salaries %>% arrange(desc(`Budgeted Annual Salary`))
```

```
## # A tibble: 13,039 x 7
##    Employee Position Campus Department `Budgeted Annua… `Salary from St…
##    <chr>    <chr>    <chr>  <chr>                 <dbl>            <dbl>
##  1 Frost, … Head Co… UNL    Athletics           5000000               NA
##  2 Miles, … Head Co… UNL    Athletics           2375000               NA
##  3 Moos, W… Athleti… UNL    Athletics           1000000               NA
##  4 Gold, J… Chancel… UNMC   Office of…           853338           853338
##  5 Chinand… Assista… UNL    Athletics            800000               NA
##  6 Walters… Assista… UNL    Athletics            700000               NA
##  7 Cook, J… Head Co… UNL    Athletics            675000               NA
##  8 William… Head Co… UNL    Athletics            626750               NA
##  9 Bounds,… Preside… UNCA   Office of…           540000           540000
## 10 Austin … Assista… UNL    Athletics            475000               NA
## # … with 13,029 more rows, and 1 more variable: `Salary from Other
## #   Funds` <dbl>
```
…
