…
But what if we want to see all of the Power Five conferences? We *could* use conditional logic in our filter. The conditional logic operators are `|` for OR and `&` for AND. NOTE: AND means all conditions have to be met. OR means any of the conditions work. So be careful about boolean logic. 


```r
attendance %>% filter(Conference == "Big 10" | Conference == "SEC" | Conference == "Pac-12" | Conference == "ACC" | Conference == "Big 12")
```

```
## # A tibble: 51 x 8
##    Institution    Conference `2013` `2014` `2015` `2016` `2017` `2018`
##    <chr>          <chr>       <dbl>  <dbl>  <dbl>  <dbl>  <dbl>  <dbl>
##  1 Alabama        SEC        710538 710736 707786 712747 712053 710931
##  2 Arizona        Pac-12     285713 354973 308355 338017 255791 318051
##  3 Arizona St.    Pac-12     501509 343073 368985 286417 359660 291091
##  4 Arkansas       SEC        431174 399124 471279 487067 442569 367748
##  5 Auburn         SEC        685252 612157 612157 695498 605120 591236
##  6 Baylor         Big 12     321639 280257 276960 275029 262978 248017
##  7 Boston College ACC        198035 239893 211433 192942 215546 263363
##  8 California     Pac-12     345303 286051 292797 279769 219290 300061
##  9 Clemson        ACC        574333 572262 588266 566787 565412 562799
## 10 Colorado       Pac-12     230778 226670 236331 279652 282335 274852
## # … with 41 more rows
```
…
```r
powerfive <- c("SEC", "Big Ten", "Pac-12", "Big 12", "ACC")
```

Now with a list, we can use the %in% operator. It does what you think it does -- it gives you data that matches things IN the list you give it. 


```r
attendance %>% filter(Conference %in% powerfive)
```

```
## # A tibble: 65 x 8
##    Institution    Conference `2013` `2014` `2015` `2016` `2017` `2018`
##    <chr>          <chr>       <dbl>  <dbl>  <dbl>  <dbl>  <dbl>  <dbl>
##  1 Alabama        SEC        710538 710736 707786 712747 712053 710931
##  2 Arizona        Pac-12     285713 354973 308355 338017 255791 318051
##  3 Arizona St.    Pac-12     501509 343073 368985 286417 359660 291091
##  4 Arkansas       SEC        431174 399124 471279 487067 442569 367748
##  5 Auburn         SEC        685252 612157 612157 695498 605120 591236
##  6 Baylor         Big 12     321639 280257 276960 275029 262978 248017
##  7 Boston College ACC        198035 239893 211433 192942 215546 263363
##  8 California     Pac-12     345303 286051 292797 279769 219290 300061
##  9 Clemson        ACC        574333 572262 588266 566787 565412 562799
## 10 Colorado       Pac-12     230778 226670 236331 279652 282335 274852
## # … with 55 more rows
```

## Selecting data to make it easier to read

So now we have our Power Five list. What if we just wanted to see attendance from the most recent season and ignore all the rest? Select to the rescue. 


```r
attendance %>% filter(Conference %in% powerfive) %>% select(Institution, Conference, `2018`)
```

```
## # A tibble: 65 x 3
##    Institution    Conference `2018`
##    <chr>          <chr>       <dbl>
##  1 Alabama        SEC        710931
##  2 Arizona        Pac-12     318051
##  3 Arizona St.    Pac-12     291091
##  4 Arkansas       SEC        367748
##  5 Auburn         SEC        591236
##  6 Baylor         Big 12     248017
##  7 Boston College ACC        263363
##  8 California     Pac-12     300061
##  9 Clemson        ACC        562799
## 10 Colorado       Pac-12     274852
## # … with 55 more rows
```
…
```
## See spec(...) for full column specifications.
```

```r
players %>%
  mutate(trueshooting = (PTS/(2*(FGA + (.44*FTA))))*100) %>%
  arrange(desc(trueshooting))
```

```
## # A tibble: 5,386 x 60
##       X1 Team  Conference Player   `#` Class Pos   Height Weight Hometown
##    <dbl> <chr> <chr>      <chr>  <dbl> <chr> <chr> <chr>   <dbl> <chr>   
##  1   579 Texa… Big 12     Drayt…     4 JR    G     6-0       156 Austin,…
##  2   843 Ston… AEC        Nick …    42 FR    F     6-7       240 Port Je…
##  3  1059 Sout… Southland  Patri…    22 SO    F     6-3       210 Folsom,…
##  4  4269 Dayt… A-10       Camro…    52 SO    G     5-7       160 Country…
##  5  4681 Cali… Pac-12     David…    21 JR    G     6-4       185 Newbury…
##  6   326 Virg… ACC        Grant…     1 FR    G     <NA>       NA Charlot…
##  7   410 Vand… SEC        Mac H…    42 FR    G     6-6       182 Chattan…
##  8  1390 Sain… A-10       Jack …    31 JR    G     6-6       205 Mattoon…
##  9  2230 NJIT… A-Sun      Patri…     3 SO    G     5-9       160 West Or…
## 10   266 Wash… Pac-12     Reaga…    34 FR    F     6-6       225 Santa A…
## # … with 5,376 more rows, and 50 more variables: `High School` <chr>,
## #   Summary <chr>, Rk.x <dbl>, G <dbl>, GS <dbl>, MP <dbl>, FG <dbl>,
## #   FGA <dbl>, `FG%` <dbl>, `2P` <dbl>, `2PA` <dbl>, `2P%` <dbl>, `3P` <dbl>,
## #   `3PA` <dbl>, `3P%` <dbl>, FT <dbl>, FTA <dbl>, `FT%` <dbl>, ORB <dbl>,
## #   DRB <dbl>, TRB <dbl>, AST <dbl>, STL <dbl>, BLK <dbl>, TOV <dbl>, PF <dbl>,
## #   PTS <dbl>, Rk.y <dbl>, PER <dbl>, `TS%` <dbl>, `eFG%` <dbl>, `3PAr` <dbl>,
## #   FTr <dbl>, PProd <dbl>, `ORB%` <dbl>, `DRB%` <dbl>, `TRB%` <dbl>,
## #   `AST%` <dbl>, `STL%` <dbl>, `BLK%` <dbl>, `TOV%` <dbl>, `USG%` <dbl>,
## #   OWS <dbl>, DWS <dbl>, WS <dbl>, `WS/40` <dbl>, OBPM <dbl>, DBPM <dbl>,
## #   BPM <dbl>, trueshooting <dbl>
```

In most contests like the batting title in Major League Baseball, there's a minimum number of X to qualify. In baseball, it's at bats. In basketball, it attempts. So let's set a floor and see how it changes. What if we said you had to have played 100 minutes in a season? The top players in college basketball play more than 1000 minutes in a season. So 100 is not that much. Let's try it and see.


```r
players %>%
  mutate(trueshooting = (PTS/(2*(FGA + (.44*FTA))))*100) %>%
  arrange(desc(trueshooting)) %>%
  filter(MP > 100)
```

```
## # A tibble: 3,659 x 60
##       X1 Team  Conference Player   `#` Class Pos   Height Weight Hometown
##    <dbl> <chr> <chr>      <chr>  <dbl> <chr> <chr> <chr>   <dbl> <chr>   
##  1  4634 Cent… Southland  Jorda…    33 JR    G     6-1       185 Harriso…
##  2  3623 Hart… AEC        Max T…    20 SR    G     6-5       200 Rye, NY 
##  3  2675 Mich… Big Ten    Thoma…    15 FR    F     6-8       225 Clarkst…
##  4  5175 Litt… Sun Belt   Kris …    32 SO    F     6-8       194 Dewitt,…
##  5  5205 Ariz… Pac-12     De'Qu…    32 SR    F     6-10      225 St. Tho…
##  6  4099 ETSU… Southern   Lucas…    25 JR    C     7-0       220 De Lier…
##  7  3006 Loui… Sun Belt   Brand…     0 SR    G     6-4       180 Hawthor…
##  8   570 Texa… Big 12     Jaxso…    10 FR    F     6-11      220 Lovelan…
##  9  1704 Pepp… WCC        Victo…    34 FR    C     6-9       200 Owerri,…
## 10  4056 East… MAC        Jalen…    30 SO    F     6-9       215 Pasco, …
## # … with 3,649 more rows, and 50 more variables: `High School` <chr>,
## #   Summary <chr>, Rk.x <dbl>, G <dbl>, GS <dbl>, MP <dbl>, FG <dbl>,
## #   FGA <dbl>, `FG%` <dbl>, `2P` <dbl>, `2PA` <dbl>, `2P%` <dbl>, `3P` <dbl>,
## #   `3PA` <dbl>, `3P%` <dbl>, FT <dbl>, FTA <dbl>, `FT%` <dbl>, ORB <dbl>,
## #   DRB <dbl>, TRB <dbl>, AST <dbl>, STL <dbl>, BLK <dbl>, TOV <dbl>, PF <dbl>,
## #   PTS <dbl>, Rk.y <dbl>, PER <dbl>, `TS%` <dbl>, `eFG%` <dbl>, `3PAr` <dbl>,
## #   FTr <dbl>, PProd <dbl>, `ORB%` <dbl>, `DRB%` <dbl>, `TRB%` <dbl>,
## #   `AST%` <dbl>, `STL%` <dbl>, `BLK%` <dbl>, `TOV%` <dbl>, `USG%` <dbl>,
## #   OWS <dbl>, DWS <dbl>, WS <dbl>, `WS/40` <dbl>, OBPM <dbl>, DBPM <dbl>,
…
