…
```r
offense$predicted <- predict(fit)
offense$residuals <- residuals(fit)
```

Now we can sort our data by those residuals. Sorting in descending order gives us the teams that are overperforming the model.


```r
offense %>% arrange(desc(residuals))
```

```
## # A tibble: 130 x 14
##    Name  OffPoints OffPointsG DefPoints DefPointsG  Pen. Yards `Pen./G`
##    <chr>     <dbl>      <dbl>     <dbl>      <dbl> <dbl> <dbl>    <dbl>
##  1 Tole…       525       40.4       397       30.5    99   931      7.6
##  2 Utah…       618       47.5       289       22.2   101   916      7.8
##  3 Syra…       523       40.2       351       27      94   768      7.2
##  4 Okla…       677       48.4       466       33.3    86   855      6.1
##  5 Clem…       664       44.3       197       13.1    73   674      4.9
##  6 Hous…       571       43.9       483       37.2    87   683      6.7
##  7 Miss…       407       33.9       434       36.2    88   802      7.3
##  8 Neva…       404       31.1       350       26.9    77   738      5.9
##  9 Bost…       384       32         308       25.7    75   590      6.3
## 10 West…       483       40.3       326       27.2    85   800      7.1
## # … with 120 more rows, and 6 more variables: OffConversions <dbl>,
## #   OffConversionPct <dbl>, DefConversions <dbl>, DefConversionPct <dbl>,
## #   predicted <dbl>, residuals <dbl>
```
…
So what we can say about this model is that it's statistically significant but utterly meaningless. Normally, we'd stop right here -- why bother going forward with a predictive model that isn't predictive? But let's do it anyway. 


```r
penalties$predicted <- predict(pfit)
penalties$residuals <- residuals(pfit)
```


```r
penalties %>% arrange(desc(residuals))
```

```
## # A tibble: 130 x 14
##    Name  OffPoints OffPointsG DefPoints DefPointsG  Pen. Yards `Pen./G`
##    <chr>     <dbl>      <dbl>     <dbl>      <dbl> <dbl> <dbl>    <dbl>
##  1 Okla…       677       48.4       466       33.3    86   855      6.1
##  2 Utah…       618       47.5       289       22.2   101   916      7.8
##  3 Clem…       664       44.3       197       13.1    73   674      4.9
##  4 Alab…       684       45.6       271       18.1    87   796      5.8
##  5 Hous…       571       43.9       483       37.2    87   683      6.7
##  6 UCF         562       43.2       295       22.7    97   848      7.5
##  7 Memp…       601       42.9       447       31.9   101   833      7.2
##  8 Ohio        521       40.1       320       24.6    64   652      4.9
##  9 Syra…       523       40.2       351       27      94   768      7.2
## 10 West…       483       40.3       326       27.2    85   800      7.1
## # … with 120 more rows, and 6 more variables: OffConversions <dbl>,
## #   OffConversionPct <dbl>, DefConversions <dbl>, DefConversionPct <dbl>,
## #   predicted <dbl>, residuals <dbl>
```
…
