…
A way to read this -- a team at zero is precisely average. The larger the positive number, the more exceptional they are. The larger the negative number, the more truly terrible they are. 

So who are the best teams in the country? 


```r
teamzscore %>% arrange(desc(TotalZscore))
```

```
## # A tibble: 353 x 11
## # Groups:   Conference [32]
##    Conference Team  FGAvg ReboundAvg OppFGAvg OffRebAvg FGzscore RebZscore
##    <chr>      <chr> <dbl>      <dbl>    <dbl>     <dbl>    <dbl>     <dbl>
##  1 Big West   UC-I… 0.468       38.0    0.378      27.5    1.32      2.24 
##  2 Big 12     Kans… 0.487       35.7    0.378      29.0    2.36      0.892
##  3 OVC        Murr… 0.487       35.5    0.400      27.7    1.43      1.11 
##  4 ACC        Loui… 0.468       37.4    0.374      30.3    1.41      1.43 
##  5 Ivy        Yale… 0.472       37.4    0.369      31.0    1.23      1.52 
##  6 WCC        Gonz… 0.513       37.9    0.418      28.8    1.48      1.92 
##  7 Big South  Wint… 0.463       37.7    0.426      30.8    1.06      2.18 
##  8 Summit     Sout… 0.488       35.9    0.421      31.4    1.45      1.51 
##  9 A-10       Dayt… 0.526       32.4    0.420      28.5    2.57     -0.127
## 10 NEC        Sacr… 0.442       37.1    0.414      31.7    0.770     1.70 
## # … with 343 more rows, and 3 more variables: OppZscore <dbl>,
## #   OppRebZScore <dbl>, TotalZscore <dbl>
```
…
