Chapter 11 Residuals | Sports Data Analysis and Visualization
…
Next: Look at the Adjusted R-squared value. What that says is that 72 percent of a team’s scoring output can be predicted by their net yards.

Last: Look at the p-value. We are looking for a p-value smaller than .05. At .05, we can say that our correlation didn’t happen at random. And, in this case, it REALLY didn’t happen at random. But if you know a little bit about football, it doesn’t surprise you that the more you outgain your opponent, the more you win by. It’s an intuitive result.

What we want to do now is look at those residuals. We want to add them to our individual game records. We can do that by creating two new fields – predicted and residuals – to our dataframe like this:

residualmodel$predicted <- predict(fit)
residualmodel$residuals <- residuals(fit)

Now we can sort our data by those residuals. Sorting in descending order gives us the games where teams overperformed the model. To make it easier to read, I’m going to use select to give us just the columns we need to see.

residualmodel %>% arrange(desc(residuals)) %>% select(Team, Opponent, Result, NetYards, residuals)

## # A tibble: 1,662 x 5
##    Team          Opponent             Result    NetYards residuals
##    <chr>         <chr>                <chr>        <dbl>     <dbl>
##  1 Penn State    Buffalo              W (45-13)      -72      39.4
##  2 Illinois      Nebraska             L (38-42)     -386      36.8
##  3 Virginia Tech Miami (FL)           W (42-35)     -226      30.8
##  4 Tennessee     Chattanooga          W (45-0)       133      30.5
##  5 Baylor        Kansas               W (61-6)       227      30.5
##  6 Syracuse      Duke                 W (49-6)       116      30.3
##  7 Houston       North Texas          W (46-25)      -86      29.9
##  8 South Florida South Carolina State W (55-16)       83      29.8
##  9 Troy          Texas State          W (63-27)       55      29.8
## 10 Miami (FL)    Louisville           W (52-27)      -47      29.7
## # … with 1,652 more rows
…
Our min and max go from -73 to positive 77

Our adjusted R-squared is … -0.0004139. Not much at all.

Our p-value is … 0.576, which is more than than .05.

So what we can say about this model is that it’s statistically insignificant and utterly meaningless. Normally, we’d stop right here – why bother going forward with a predictive model that isn’t predictive? But let’s do it anyway.

penalties$predicted <- predict(pfit)
penalties$residuals <- residuals(pfit)

penalties %>% arrange(desc(residuals)) %>% select(Team, Opponent, Result, TotalPenaltyYards, residuals)

## # A tibble: 1,662 x 5
##    Team           Opponent            Result    TotalPenaltyYards residuals
##    <chr>          <chr>               <chr>                 <dbl>     <dbl>
##  1 Maryland       Howard              W (79-0)                 87      76.9
##  2 Penn State     Idaho               W (79-7)                 97      69.9
##  3 Ohio State     Miami (OH)          W (76-5)                102      69.0
##  4 Oregon         Nevada              W (77-6)                 88      68.9
##  5 Louisiana      Texas Southern      W (77-6)                 55      68.6
##  6 Miami (FL)     Bethune-Cookman     W (63-0)                110      61.0
##  7 Alabama        Western Carolina    W (66-3)                 81      60.8
##  8 UCF            Florida A&M         W (62-0)                171      60.5
##  9 South Carolina Charleston Southern W (72-10)                49      59.6
## 10 Wisconsin      Central Michigan    W (61-0)                 49      58.6
## # … with 1,652 more rows
…
