Chapter 7 Transforming data | Sports Data Analysis and Visualization for Journalists and Other Storytellers
…
  mutate(grouping = case_when(
    Game <=10 ~ "First 10",
    Game >= (max_games - 10) ~ "Last 10")
    ) %>%
  group_by(Team, grouping) %>%
  summarise(
    shootingPCT = mean(TeamFGPCT)
  ) %>% 
  spread(grouping, shootingPCT) %>%
  mutate(
    change = ((`Last 10`-`First 10`)/`First 10`)*100,
    difference = (`First 10` - `Last 10`)*100
    ) %>% arrange(change)

## # A tibble: 353 x 6
## # Groups:   Team [353]
##    Team                    `First 10` `Last 10` `<NA>` change difference
##    <chr>                        <dbl>     <dbl>  <dbl>  <dbl>      <dbl>
##  1 North Texas Mean Green       0.484     0.391  0.439  -19.2       9.29
##  2 Miami (OH) RedHawks          0.465     0.379  0.424  -18.6       8.66
##  3 NC State Wolfpack            0.515     0.423  0.437  -18.0       9.29
##  4 Ohio State Buckeyes          0.477     0.392  0.441  -17.9       8.57
##  5 Vanderbilt Commodores        0.459     0.379  0.423  -17.5       8.02
##  6 Pacific Tigers               0.467     0.385  0.417  -17.4       8.13
##  7 Indiana Hoosiers             0.515     0.427  0.447  -17.2       8.89
##  8 UNC Greensboro Spartans      0.510     0.422  0.442  -17.2       8.78
##  9 Cincinnati Bearcats          0.474     0.394  0.432  -16.8       7.94
## 10 Seattle Redhawks             0.481     0.401  0.431  -16.6       8.00
## # … with 343 more rows
…
