Chapter 12 Z scores | Sports Data Analysis and Visualization for Journalists and Other Storytellers
…
A way to read this – a team at zero is precisely average. The larger the positive number, the more exceptional they are. The larger the negative number, the more truly terrible they are.

So who are the best teams in the country?

teamzscore %>% arrange(desc(TotalZscore))

## # A tibble: 353 x 9
## # Groups:   Conference [32]
##    Conference Team  FGAvg ReboundAvg OppFGAvg FGzscore RebZscore OppZscore
##    <chr>      <chr> <dbl>      <dbl>    <dbl>    <dbl>     <dbl>     <dbl>
##  1 WCC        Gonz… 0.531       36.3    0.386    2.25      2.02       2.23
##  2 Big Ten    Mich… 0.486       38.1    0.378    2.13      2.22       1.86
##  3 Summit     Sout… 0.501       35.1    0.419    1.89      1.68       2.27
##  4 Ivy        Yale… 0.494       36.2    0.414    1.84      1.80       1.42
##  5 AAC        Hous… 0.447       37.2    0.370    0.530     2.14       2.22
##  6 SEC        Kent… 0.479       36.2    0.399    1.31      1.48       2.08
##  7 SEC        Tenn… 0.496       34.7    0.400    2.08      0.775      2.01
##  8 SWAC       Gram… 0.451       34.7    0.395    1.18      1.19       2.26
##  9 Big West   UC-I… 0.457       36.5    0.382    0.774     1.55       2.29
## 10 OVC        Belm… 0.501       36.2    0.423    1.91      1.46       1.09
## # … with 343 more rows, and 1 more variable: TotalZscore <dbl>
…
